AT91Bootstrap 4.0.5-gitAUTOINC+8fe4b67188-r0.tano3.2 (2022-11-09 13:05:42)

SD/MMC: Image: Read file u-boot.bin to 0x26f00000
SD: Card Capacity: High or Extended
SD: Specification Version 3.0X
SD/MMC: Done to load image
<debug_uart>
