AT91Bootstrap 4.0.5-gitAUTOINC+8fe4b67188-r0.tano3.2 (2022-11-09 13:05:42)

EEPROM: Loading AT24xx information ...
EEPROM: BoardName | [Revid] | VendorName
  #0  SAMA5D2-XULT [AB1]      ATMEL-RF0
EEPROM: BoardDate | Year | Week
EEPROM:             2016    22

EEPROM: Board sn: 0xd300000 revision: 0x400000

SD/MMC: Image: Read file u-boot.bin to 0x26f00000
MMC: ADMA supported
SD: Card Capacity: High or Extended
SD: Specification Version 3.0X
SD/MMC: Done to load image
<debug_uart>
